// EVENT 3066
Name "Page 65537"

If(0,25,1)
 JumpToLabel("反省会")
 0()
EndIf()
PictureDisplay(5,"80_page65537_st02",0,0,0,0,100,100,0,0)
PictureMove(5,null,0,0,0,0,100,100,255,0,30,true)
241(bytes(0x04,0x08,0x6f,0x3a,0x0d,0x52,0x50,0x47,0x3a,0x3a,0x42,0x47,0x4d,0x08,0x3a,0x0a,0x40,0x6e,0x61,0x6d,0x65,0x49,0x22,0x09,0x65,0x72,0x6f,0x31,0x06,0x3a,0x06,0x45,0x54,0x3a,0x0c,0x40,0x76,0x6f,0x6c,0x75,0x6d,0x65,0x69,0x69,0x3a,0x0b,0x40,0x70,0x69,0x74,0x63,0x68,0x69,0x69))
ShowMessageFace("page65537_fc1",1,0,2,1)
ShowMessage("\\n<Page 65537>Sheesh, you made quite a fuss, didn't you?\nI'll have to use you to enjoy myself because of that...")
ShowMessageFace("",0,0,2,2)
ShowMessage("\\n<Luka>Aiee!")
250(bytes(0x04,0x08,0x6f,0x3a,0x0c,0x52,0x50,0x47,0x3a,0x3a,0x53,0x45,0x08,0x3a,0x0a,0x40,0x6e,0x61,0x6d,0x65,0x49,0x22,0x16,0x6d,0x6f,0x6e,0x5f,0x65,0x72,0x6f,0x5f,0x6d,0x61,0x6b,0x69,0x74,0x75,0x6b,0x69,0x33,0x06,0x3a,0x06,0x45,0x54,0x3a,0x0b,0x40,0x70,0x69,0x74,0x63,0x68,0x69,0x69,0x3a,0x0c,0x40,0x76,0x6f,0x6c,0x75,0x6d,0x65,0x69,0x69))
ShowMessageFace("",0,0,2,3)
ShowMessage("Tentacles shoot out from her body and grasp my body.")
ShowMessageFace("",0,0,2,4)
ShowMessage("They slowly pull me towards an opening large enough to fit my lower body into it.")
ShowMessageFace("",0,0,2,5)
ShowMessage("\\n<Luka>Aaaa...")
ShowMessageFace("page65537_fc1",1,0,2,6)
ShowMessage("\\n<Page 65537>Do you want to come inside here?")
ShowMessageFace("page65537_fc1",1,0,2,7)
ShowMessage("\\n<Page 65537>With my mixer,\nI'll squeeze everything out of you...")
ShowMessageFace("",0,0,2,8)
ShowMessage("The pink flesh inside of her wriggles around.")
ShowMessage("Seeing it right before my eyes, despair fills me.")
ShowMessageFace("",0,0,2,9)
ShowMessage("That hole is only designed for killing men by sucking everything out...")
ShowMessage("What would it be like to be killed by that...?")
ShowMessageFace("",0,0,2,10)
ShowMessage("The ruinous curiosity boils up in me.")
ShowMessage("At least once, I want to see what it's like...")
ShowMessageFace("",0,0,2,11)
ShowMessage("Filled with conflicting feelings of despair and expectation, I'm slowly dragged closer.")
ShowMessageFace("page65537_fc1",1,0,2,12)
ShowMessage("\\n<Page 65537>Haha... The face of a man in despair is wonderful.")
ShowMessageFace("page65537_fc1",1,0,2,13)
ShowMessage("\\n<Page 65537>Before this hole,\nevery man has that expression...")
ShowMessageFace("",0,0,2,14)
ShowMessage("Laughing, she pulls me right up next to her opening...")
245(bytes(0x04,0x08,0x6f,0x3a,0x0d,0x52,0x50,0x47,0x3a,0x3a,0x42,0x47,0x53,0x08,0x3a,0x0a,0x40,0x6e,0x61,0x6d,0x65,0x49,0x22,0x1a,0x6d,0x6f,0x6e,0x5f,0x68,0x73,0x65,0x61,0x6e,0x32,0x31,0x5f,0x74,0x65,0x6e,0x74,0x61,0x63,0x6c,0x65,0x32,0x06,0x3a,0x06,0x45,0x54,0x3a,0x0c,0x40,0x76,0x6f,0x6c,0x75,0x6d,0x65,0x69,0x55,0x3a,0x0b,0x40,0x70,0x69,0x74,0x63,0x68,0x69,0x69))
PictureDisplay(5,"ev_page65537_hb1",0,0,0,0,100,100,255,0)
ShowMessageFace("",0,0,2,15)
ShowMessage("Then forces my lower body into her!")
ShowMessageFace("",0,0,2,16)
ShowMessage("\\n<Luka>Ahhhh!")
ShowMessageFace("",0,0,2,17)
ShowMessage("The soft walls of flesh tighten around my body.")
ShowMessageFace("",0,0,2,18)
ShowMessage("The mucus inside of her starts to cover my body.")
ShowMessage("The creases inside of her rub and massage my entire body.")
ShowMessageFace("",0,0,2,19)
ShowMessage("My feet, waist, thighs... and especially my penis.")
ShowMessageFace("page65537_fc1",1,0,2,20)
ShowMessage("\\n<Page 65537>Haha... How is it?\nMy lower hole is amazing, isn't it?")
ShowMessageFace("",0,0,2,21)
ShowMessage("\\n<Luka>Aaa...")
ShowMessageFace("",0,0,2,22)
ShowMessage("Even if I twist my body, I'm unable to escape from the flesh that's tightening around me.")
ShowMessage("I'm unable to fully focus on anything but the overpowering pleasure attacking my lower body.")
ShowMessageFace("page65537_fc1",1,0,2,23)
ShowMessage("\\n<Page 65537>Hehe... Once they're stuck in this hole,\nevery man ends their resistance.")
ShowMessageFace("",0,0,2,24)
ShowMessage("While I writhe in pleasure, Page 65537 looks at my face while she laughs.")
ShowMessageFace("",0,0,2,25)
ShowMessage("The flesh surrounding me starts to contract in waves.")
ShowMessage("Moving and twisting around me, the walls of her hole seem to just be toying with my body.")
ShowMessageFace("",0,0,2,26)
ShowMessage("The flesh moving and rotating around me feels as though I've been inserted into a mixer.")
ShowMessageFace("",0,0,2,27)
ShowMessage("\\n<Luka>Auu! Inside... You're moving!")
ShowMessageFace("page65537_fc1",1,0,2,28)
ShowMessage("\\n<Page 65537>Haha... Amazing, isn't it?\nThis hole is my proud male semen squeezing organ.")
ShowMessageFace("page65537_fc1",1,0,2,29)
ShowMessage("\\n<Page 65537>Enjoy it to the fullest as I squeeze you dry.")
ShowMessageFace("",0,0,2,30)
ShowMessage("\\n<Luka>Auu! Incredible!")
ShowMessageFace("",0,0,2,31)
ShowMessage("The walls start to tighten around me as they continue to twist and rotate.")
ShowMessage("Too weak to struggle against it, all I can do is lay back and bask in the pleasure.")
ShowMessageFace("",0,0,2,32)
ShowMessage("With no means to escape, I can only go mad by the ecstasy.")
ShowMessage("As I cry out, I only make the sadistic Page 65537 happier.")
ShowMessageFace("",0,0,2,33)
ShowMessage("\\n<Luka>Aiiee! Ahhh!")
ShowMessageFace("page65537_fc1",1,0,2,34)
ShowMessage("\\n<Page 65537>Haha... Once a man's organ is enlarged, all they can do is writhe in pleasure.\nHuman males are so pathetic...")
ShowMessageFace("",0,0,2,35)
ShowMessage("\\n<Luka>Aaa... Aaaa....")
ShowMessageFace("",0,0,2,36)
ShowMessage("The flesh around my penis starts to wrap tighter around me.")
ShowMessage("As she increases the pressure, her flesh starts to twist and rotate faster.")
ShowMessageFace("",0,0,2,37)
ShowMessage("Stuck in this organ whose sole purpose is to force me to come, I'm completely helpless...")
ShowMessageFace("",0,0,2,38)
ShowMessage("\\n<Luka>Auu... I'm going to come...!")
ShowMessageFace("",0,0,2,39)
ShowMessage("My body writhes miserably as I yell out.")
ShowMessage("Knowing I can't escape, the only thing I could do was yell out pitifully.")
ShowMessageFace("page65537_fc1",1,0,2,40)
ShowMessage("\\n<Page 65537>Haha... Please let it all out.\nThis organ is designed to just wring out pathetic men's semen, after all.")
ShowMessageFace("",0,0,2,41)
ShowMessage("Stuck in her rotating flesh, I feel the desire to release shoot through my waist.")
ShowMessageFace("",0,0,2,42)
ShowMessage("\\n<Luka>Aaaaa!")
RunCommonEvent(104)
PictureDisplay(5,"ev_page65537_hb2",0,0,0,0,100,100,255,0)
RunCommonEvent(105)
ShowMessageFace("",0,0,2,43)
ShowMessage("Forced to orgasm, I explode inside of her.")
ShowMessage("Each spurt seems to shoot out not only my semen, but my life itself.")
ShowMessageFace("page65537_fc1",1,0,2,44)
ShowMessage("\\n<Page 65537>It's not over yet... Until you're completely dry, I'll squeeze everything out.")
ShowMessageFace("",0,0,2,45)
ShowMessage("\\n<Luka>No way... Auuu!")
245(bytes(0x04,0x08,0x6f,0x3a,0x0d,0x52,0x50,0x47,0x3a,0x3a,0x42,0x47,0x53,0x08,0x3a,0x0a,0x40,0x6e,0x61,0x6d,0x65,0x49,0x22,0x1a,0x6d,0x6f,0x6e,0x5f,0x68,0x73,0x65,0x61,0x6e,0x32,0x32,0x5f,0x74,0x65,0x6e,0x74,0x61,0x63,0x6c,0x65,0x33,0x06,0x3a,0x06,0x45,0x54,0x3a,0x0c,0x40,0x76,0x6f,0x6c,0x75,0x6d,0x65,0x69,0x55,0x3a,0x0b,0x40,0x70,0x69,0x74,0x63,0x68,0x69,0x69))
ShowMessageFace("",0,0,2,46)
ShowMessage("As soon as my ejaculation finished, the walls inside of her started to quickly rotate and twist around me again.")
ShowMessageFace("page65537_fc1",1,0,2,47)
ShowMessage("\\n<Page 65537>My organ forces pleasure into the man,\nand makes him ejaculate against his will.")
ShowMessageFace("page65537_fc1",1,0,2,48)
ShowMessage("\\n<Page 65537>Each ejaculation weakens them so much,\nmost can only survive about ten.")
ShowMessageFace("page65537_fc1",1,0,2,49)
ShowMessage("\\n<Page 65537>How many times do you think you'll live through?\nI'll take my time and find out... Hahaha.")
ShowMessageFace("",0,0,2,50)
ShowMessage("\\n<Luka>Don't... Ahhh!\nAhhhhh!")
ShowMessageFace("",0,0,2,51)
ShowMessage("She tightens her flesh around me, cutting short my fearful yell.")
ShowMessageFace("",0,0,2,52)
ShowMessage("Even though I just came, I can feel another already rising through me.")
ShowMessageFace("",0,0,2,53)
ShowMessage("\\n<Luka>Ahhh... Again...")
ShowMessageFace("",0,0,2,54)
ShowMessage("Hearing the frightening story about men dying after ten times, I try to endure with all my might.")
ShowMessage("But even if my mind tries to resist, my body is already a prisoner.")
ShowMessageFace("",0,0,2,55)
ShowMessage("Stuck inside of her, I won't get a choice...")
ShowMessageFace("page65537_fc1",1,0,2,56)
ShowMessage("\\n<Page 65537>Even if you know you'll die from the pleasure,\nyou're still going to give in?")
ShowMessageFace("page65537_fc1",1,0,2,57)
ShowMessage("\\n<Page 65537>Males are such pathetic creatures.")
ShowMessageFace("",0,0,2,58)
ShowMessage("\\n<Luka>Aaah... Too good... Coming...!\nNo... Ahhh!")
ShowMessageFace("",0,0,2,59)
ShowMessage("My body trembles as I shake my head in horror.")
RunCommonEvent(104)
RunCommonEvent(105)
ShowMessageFace("",0,0,2,60)
ShowMessage("But even still, I orgasm and shoot more of my semen into her.")
ShowMessageFace("",0,0,2,61)
ShowMessage("\\n<Luka>Faa... I came again...")
ShowMessageFace("",0,0,2,62)
ShowMessage("Along with my semen, I feel more of my energy being drained out.")
ShowMessageFace("page65537_fc1",1,0,2,63)
ShowMessage("\\n<Page 65537>Haha... Being squeezed like this,\nyou're nothing but nourishment for me.")
ShowMessageFace("page65537_fc1",1,0,2,64)
ShowMessage("\\n<Page 65537>You should feel honored.")
ShowMessageFace("",0,0,2,65)
ShowMessage("\\n<Luka>Stop... Auuu!")
ShowMessageFace("",0,0,2,66)
ShowMessage("No matter how much I plead, her organ continues to serve its purpose of forcing pleasure into me.")
ShowMessageFace("",0,0,2,67)
ShowMessage("Once a man is stuck in here, they're squeezed dry until their eventual death...")
ShowMessageFace("",0,0,2,68)
ShowMessage("\\n<Luka>Auu... No more...")
ShowMessageFace("page65537_fc1",1,0,2,69)
ShowMessage("\\n<Page 65537>Haha... How pathetic.\nIf you don't want to die, all you have to do is endure it.")
ShowMessageFace("",0,0,2,70)
ShowMessage("\\n<Luka>Faa... Aaa....")
RunCommonEvent(104)
RunCommonEvent(105)
ShowMessageFace("",0,0,2,71)
ShowMessage("Contrary to what she just said, I'm forced to ejaculate again.")
ShowMessageFace("",0,0,2,72)
ShowMessage("In addition to the fear, I feel the misery of my situation rise up.")
ShowMessage("No matter how much I resist, I can't deny my body.")
ShowMessageFace("",0,0,2,73)
ShowMessage("Weakened by this pleasure, I'm going to be squeezed to death...")
ShowMessageFace("",0,0,2,74)
ShowMessage("\\n<Luka>Auu...\nNo... No...")
RunCommonEvent(104)
RunCommonEvent(105)
ShowMessageFace("page65537_fc1",1,0,2,75)
ShowMessage("\\n<Page 65537>Haha... You came again.\nIn compensation for this pleasure, you're getting closer to death...")
ShowMessageFace("",0,0,2,76)
ShowMessage("\\n<Luka>Aghh!")
ShowMessageFace("",0,0,2,77)
ShowMessage("While I clench my teeth in frustration, Page 65537 continues to squeeze me closer to my death.")
ShowMessageFace("",0,0,2,78)
ShowMessage("Her organ that kills men by sucking out their semen...")
ShowMessageFace("",0,0,2,79)
ShowMessage("Once I got stuck in here, my death was determined...")
ShowMessageFace("",0,0,2,80)
ShowMessage("\\n<Luka>Aaaaa!")
RunCommonEvent(104)
RunCommonEvent(105)
ShowMessageFace("",0,0,2,81)
ShowMessage("Like that, I'm forced to orgasm over and over again.")
ShowMessageFace("",0,0,2,82)
ShowMessage("Finally...")
246(1)
ShowMessageFace("",0,0,2,83)
ShowMessage("\\n<Luka>A...aa...")
ShowMessageFace("",0,0,2,84)
ShowMessage("Forced to ejaculate too many times to count, I feel my consciousness start to fade.")
ShowMessageFace("page65537_fc1",1,0,2,85)
ShowMessage("\\n<Page 65537>Haha... How does it feel to be squeezed to death?\nThe next time you come, you'll die.")
ShowMessageFace("",0,0,2,86)
ShowMessage("\\n<Luka>A..aa...")
ShowMessageFace("",0,0,2,87)
ShowMessage("It's finally the last time...")
ShowMessage("Unable to think of anything else but what's coming next, I'm resigned to my fate.")
ShowMessageFace("page65537_fc1",1,0,2,88)
ShowMessage("\\n<Page 65537>Now... die.")
ShowMessageFace("",0,0,2,89)
ShowMessage("\\n<Luka>A....! Faaa!")
245(bytes(0x04,0x08,0x6f,0x3a,0x0d,0x52,0x50,0x47,0x3a,0x3a,0x42,0x47,0x53,0x08,0x3a,0x0a,0x40,0x6e,0x61,0x6d,0x65,0x49,0x22,0x1a,0x6d,0x6f,0x6e,0x5f,0x68,0x73,0x65,0x61,0x6e,0x32,0x32,0x5f,0x74,0x65,0x6e,0x74,0x61,0x63,0x6c,0x65,0x33,0x06,0x3a,0x06,0x45,0x54,0x3a,0x0c,0x40,0x76,0x6f,0x6c,0x75,0x6d,0x65,0x69,0x55,0x3a,0x0b,0x40,0x70,0x69,0x74,0x63,0x68,0x69,0x69))
ShowMessageFace("",0,0,2,90)
ShowMessage("Her organ starts to twist and rotate around me even fiercer than before.")
ShowMessage("Squeezing my entire lower body, the deathly climax shoots through my waist.")
ShowMessageFace("",0,0,2,91)
ShowMessage("The ecstasy washes over my entire body, and...")
RunCommonEvent(104)
RunCommonEvent(105)
ShowMessageFace("",0,0,2,92)
ShowMessage("Unable to fight against the deathly pleasure, the last of my semen is sucked out.")
ShowMessageFace("",0,0,2,93)
ShowMessage("\\n<Luka>...Aa...")
ShowMessageFace("",0,0,2,94)
ShowMessage("As soon as my ejaculation finishes, I lose consciousness.")
ShowMessageFace("",0,0,2,95)
ShowMessage("While I tasted the sweet release, Page 65537 squeezes out my existence itself.")
221()
PictureClear(5)
PictureClear(6)
246(2)
ShowMessageFace("page65537_fc1",1,0,2,96)
ShowMessage("\\n<Page 65537>Were you satisfied?\nThis is the fate of one who tries to defy the Monster Lord...")
ShowMessageFace("",0,0,2,97)
ShowMessage("Her voice was the last thing I heard.")
DefineLabel("反省会")
ShowMessageFace("",0,0,2,98)
ShowMessage("...................")
221()
242(1)
Wait(120)
355("memory_interruption")
ShowMessageFace("",0,0,2,99)
ShowMessage("You hear Ilias' voice calling out to you...")
ShowMessage("Receive her evaluation?")
ShowChoices(strings("Receive Evaluation","Change Difficulty","Reincarnate"),3)
IfPlayerPicksChoice(0,null)
 241(bytes(0x04,0x08,0x6f,0x3a,0x0d,0x52,0x50,0x47,0x3a,0x3a,0x42,0x47,0x4d,0x08,0x3a,0x0a,0x40,0x6e,0x61,0x6d,0x65,0x49,0x22,0x0a,0x69,0x72,0x69,0x61,0x73,0x06,0x3a,0x06,0x45,0x54,0x3a,0x0c,0x40,0x76,0x6f,0x6c,0x75,0x6d,0x65,0x69,0x5f,0x3a,0x0b,0x40,0x70,0x69,0x74,0x63,0x68,0x69,0x6e))
 PictureDisplay(1,"bg001",0,0,0,0,100,100,255,0)
 222()
 PictureDisplay(5,"80_iriasu_st04",0,0,0,0,100,100,0,0)
 PictureMove(5,null,0,0,0,0,100,100,255,0,30,true)
 ShowMessageFace("iriasu_fc1",3,0,2,100)
 ShowMessage("\\n<Ilias>Did it feel good to be squeezed to death by her? \nWas that really your desire?")
 PictureDisplay(5,"80_iriasu_st01",0,0,0,0,100,100,255,0)
 ShowMessageFace("iriasu_fc1",0,0,2,101)
 ShowMessage("\\n<Ilias>Page 65537 has a variety of attacks. \nShe can use Fire, Ice and Lightning elemental magic, party-wide Paralysis and Bind with her Tentacle skills.")
 ShowMessageFace("iriasu_fc1",0,0,2,102)
 ShowMessage("\\n<Ilias>The fight will be easy is you Silence her and prevent the magic and Paralysis. \nThe chances of applying Silence are moderate but it's worth a shot.")
 ShowMessageFace("iriasu_fc1",0,0,2,103)
 ShowMessage("\\n<Ilias>Other status ailments have a low chance to be applied. \nIt seems however that Slow and Stop work as well.")
 ShowMessageFace("iriasu_fc1",0,0,2,104)
 ShowMessage("\\n<Ilias>Her weakness is Fire so burn her to ashes. \nDon't skimp on healing and support magic.")
 PictureDisplay(5,"80_iriasu_st02",0,0,0,0,100,100,255,0)
 ShowMessageFace("iriasu_fc1",1,0,2,105)
 ShowMessage("\\n<Ilias>Now go, oh brave Luka.\nDestroy that monster who lives in the book.")
 242(1)
 221()
 PictureClear(5)
 PictureClear(1)
 Wait(60)
 0()
IfPlayerPicksChoice(1,null)
 ShowMessageFace("",0,0,2,106)
 ShowMessage("Please choose a difficulty level.")
 RunCommonEvent(110)
 0()
IfPlayerPicksChoice(2,null)
 0()
404()
RunCommonEvent(3000)
0()
